<?xml version="1.0" encoding="UTF-8" standalone="no"?>
<svg
   xmlns:dc="http://purl.org/dc/elements/1.1/"
   xmlns:cc="http://creativecommons.org/ns#"
   xmlns:rdf="http://www.w3.org/1999/02/22-rdf-syntax-ns#"
   xmlns:svg="http://www.w3.org/2000/svg"
   xmlns="http://www.w3.org/2000/svg"
   xmlns:sodipodi="http://sodipodi.sourceforge.net/DTD/sodipodi-0.dtd"
   xmlns:inkscape="http://www.inkscape.org/namespaces/inkscape"
   viewBox="0 0 50 50"
   enable-background="new 0 0 50 50"
   id="svg2"
   version="1.1"
   inkscape:version="0.91 r13725"
   sodipodi:docname="arrow-l.svg">
  <metadata
     id="metadata26">
    <rdf:RDF>
      <cc:Work
         rdf:about="">
        <dc:format>image/svg+xml</dc:format>
        <dc:type
           rdf:resource="http://purl.org/dc/dcmitype/StillImage" />
      </cc:Work>
    </rdf:RDF>
  </metadata>
  <defs
     id="defs24" />
  <sodipodi:namedview
     pagecolor="#ffffff"
     bordercolor="#666666"
     borderopacity="1"
     objecttolerance="10"
     gridtolerance="10"
     guidetolerance="10"
     inkscape:pageopacity="0"
     inkscape:pageshadow="2"
     inkscape:window-width="1853"
     inkscape:window-height="1056"
     id="namedview22"
     showgrid="false"
     inkscape:zoom="4.72"
     inkscape:cx="25"
     inkscape:cy="25"
     inkscape:window-x="67"
     inkscape:window-y="24"
     inkscape:window-maximized="1"
     inkscape:current-layer="svg2" />
  <style
     type="text/css"
     id="style4">.Drop_x0020_Shadow{fill:none;} .Round_x0020_Corners_x0020_2_x0020_pt{fill:#FFFFFF;stroke:#231F20;stroke-miterlimit:10;} .Live_x0020_Reflect_x0020_X{fill:none;} .Bevel_x0020_Soft{fill:url(#SVGID_1_);} .Dusk{fill:#FFFFFF;} .Foliage_GS{fill:#FFFFFF;} .Pompadour_GS{fill-rule:evenodd;clip-rule:evenodd;fill:#44ACE1;} .st0{fill:#C99E49;}</style>
  <linearGradient
     id="SVGID_1_"
     gradientUnits="userSpaceOnUse"
     x2=".707"
     y2=".707">
    <stop
       offset="0"
       stop-color="#FFFFFF"
       id="stop7" />
    <stop
       offset=".178"
       stop-color="#FFFFFF"
       id="stop9" />
    <stop
       offset=".361"
       stop-color="#FFFFFF"
       id="stop11" />
    <stop
       offset=".546"
       stop-color="#FFFFFF"
       id="stop13" />
    <stop
       offset=".732"
       stop-color="#FFFFFF"
       id="stop15" />
    <stop
       offset=".918"
       stop-color="#FFFFFF"
       id="stop17" />
    <stop
       offset="1"
       stop-color="#656B6C"
       id="stop19" />
  </linearGradient>
  <path
     id="XMLID_20_"
     class="st0"
     d="M9.4 50l21.5-25L9.3 0h10l21.5 25-21.5 25z"
     style="fill:#ffffff" />
</svg>
