<?xml version="1.0" encoding="utf-8"?>
<!-- Generator: Adobe Illustrator 19.0.0, SVG Export Plug-In . SVG Version: 6.00 Build 0)  -->
<svg version="1.1" id="Layer_1" xmlns="http://www.w3.org/2000/svg" xmlns:xlink="http://www.w3.org/1999/xlink" x="0px" y="0px"
	 viewBox="0 0 100 100" enable-background="new 0 0 100 100" xml:space="preserve">
<g>
	<path fill="#4E4441" d="M0.572,44.195c-2.986,13.051,6.041,25.49,19.588,25.902c13.663,0.417,22.428-13.472,19.588-25.902
		c-0.204-0.891-1.104-1.516-1.991-1.516c-11.731,0-23.463,0-35.194,0c-2.663,0-2.663,4.13,0,4.13c11.731,0,23.463,0,35.194,0
		c-0.663-0.506-1.327-1.011-1.991-1.517c2.378,10.405-4.799,20.347-15.605,20.675C9.266,66.3,2.286,55.205,4.554,45.293
		C5.147,42.7,1.166,41.599,0.572,44.195z"/>
</g>
<g>
	<path fill="#4E4441" d="M40.056,61.206c-1.49,0-2.895-0.48-4.295-1.47l-1.549-1.095l1.011-1.606
		c0.806-1.279,1.66-4.393,1.646-6.992l-0.002-0.448l0.19-0.407c0.673-1.442,1.714-2.968,4.33-3.341
		c3.679-0.512,6.783,2.86,6.783,7.245C48.169,57.339,44.302,61.206,40.056,61.206z M39.569,57.161
		c2.242,0.419,4.601-1.83,4.601-4.068c0-2.055-1.183-3.428-2.218-3.285c-0.561,0.08-0.79,0.171-1.088,0.709
		C40.806,52.707,40.305,55.201,39.569,57.161z"/>
</g>
<path fill="#4E4441" d="M42.471,73.709c0,1.116-0.905,2.021-2.022,2.021H2.21c-1.116,0-2.021-0.905-2.021-2.021l0,0
	c0-1.116,0.905-2.02,2.021-2.02h38.239C41.565,71.689,42.471,72.593,42.471,73.709L42.471,73.709z"/>
<g>
	<path fill="#4E4441" d="M52.402,44.07c-2.987,13.051,6.041,25.49,19.588,25.902C85.654,70.39,94.418,56.501,91.578,44.07
		c-0.203-0.891-1.104-1.516-1.991-1.516c-11.731,0-23.463,0-35.194,0c-2.663,0-2.663,4.13,0,4.13c11.731,0,23.463,0,35.194,0
		c-0.663-0.506-1.327-1.011-1.991-1.517c2.377,10.405-4.799,20.347-15.606,20.675C61.096,66.175,54.115,55.08,56.384,45.168
		C56.977,42.575,52.996,41.474,52.402,44.07z"/>
</g>
<g>
	<path fill="#4E4441" d="M91.886,61.081c-1.49,0-2.896-0.48-4.296-1.47l-1.549-1.095l1.012-1.606
		c0.806-1.279,1.659-4.393,1.647-6.992l-0.003-0.448l0.19-0.407c0.673-1.442,1.713-2.968,4.33-3.341
		c3.679-0.512,6.783,2.86,6.783,7.245C100,57.214,96.133,61.081,91.886,61.081z M91.398,57.036C93.641,57.455,96,55.206,96,52.968
		c-0.001-2.055-1.184-3.428-2.219-3.285c-0.561,0.08-0.79,0.171-1.088,0.709C92.636,52.582,92.135,55.076,91.398,57.036z"/>
</g>
<path fill="#4E4441" d="M94.301,73.584c0,1.116-0.905,2.021-2.021,2.021H54.04c-1.116,0-2.021-0.905-2.021-2.021l0,0
	c0-1.116,0.905-2.02,2.021-2.02h38.239C93.396,71.564,94.301,72.468,94.301,73.584L94.301,73.584z"/>
<g>
	<path fill="#4E4441" d="M34.361,38.727c-1.294-2.945-1.811-6.272-1.371-9.542h31.742c0.478,3.385-0.021,6.673-1.321,9.542h4.316
		c1.333-3.838,1.658-8.074,0.726-12.156c-0.203-0.891-1.104-1.516-1.991-1.516H31.268c-0.208,0-0.394,0.033-0.569,0.079
		c-0.652,0.127-1.224,0.575-1.421,1.436c-0.973,4.249-0.664,8.431,0.652,12.156H34.361z"/>
</g>
<g>
	<path fill="#4E4441" d="M64.282,38.727h4.254c0.584-1.813,0.982-3.929,1.032-5.835c0.298-0.538,0.527-0.629,1.088-0.709
		c1.035-0.143,2.218,1.231,2.219,3.285c0,1.233-0.718,2.467-1.736,3.259h4.965c0.487-1.016,0.771-2.122,0.771-3.259
		c0-4.385-3.104-7.757-6.783-7.245c-2.617,0.373-3.657,1.898-4.33,3.341l-0.19,0.407l0.003,0.448
		C65.585,34.636,64.965,37.219,64.282,38.727z"/>
</g>
</svg>
