<?xml version="1.0" encoding="utf-8"?>
<!-- Generator: Adobe Illustrator 19.0.0, SVG Export Plug-In . SVG Version: 6.00 Build 0)  -->
<svg version="1.1" id="Layer_1" xmlns="http://www.w3.org/2000/svg" xmlns:xlink="http://www.w3.org/1999/xlink" x="0px" y="0px"
	 viewBox="0 0 100 100" enable-background="new 0 0 100 100" xml:space="preserve">
<g>
	<path fill="#4E4441" d="M50.298,100.5h-1.446c-21.869,0-39.661-17.791-39.661-39.659V35.558h80.767v25.283
		C89.959,82.709,72.167,100.5,50.298,100.5z M16.192,42.558v18.283c0,18.009,14.651,32.659,32.661,32.659h1.446
		c18.009,0,32.661-14.65,32.661-32.659V42.558H16.192z"/>
</g>
<g>
	<path fill="#4E4441" d="M36.219,37.987c0-11.218,0-22.437,0-33.655c0-5.159-8-5.159-8,0c0,11.218,0,22.436,0,33.655
		C28.219,43.146,36.219,43.146,36.219,37.987L36.219,37.987z"/>
</g>
<g>
	<path fill="#4E4441" d="M71.174,38c0-11.218,0-22.437,0-33.655c0-5.159-8-5.159-8,0c0,11.218,0,22.436,0,33.655
		C63.174,43.159,71.174,43.159,71.174,38L71.174,38z"/>
</g>
<g>
	<path fill="#4E4441" d="M40.861,83.123c6.127-3.957,12.254-7.914,18.381-11.87c2.673-1.726,2.347-5.972-0.896-6.854
		c-4.359-1.186-8.718-2.372-13.077-3.559c0.298,2.285,0.597,4.569,0.896,6.854c6.186-3.616,12.373-7.231,18.559-10.847
		c4.172-2.438,0.399-8.922-3.785-6.476c-6.187,3.616-12.373,7.231-18.559,10.846c-2.798,1.636-2.243,6,0.896,6.855
		c4.359,1.185,8.718,2.372,13.077,3.559c-0.299-2.285-0.597-4.569-0.896-6.854c-6.127,3.957-12.254,7.914-18.381,11.87
		C33.029,79.26,36.785,85.755,40.861,83.123L40.861,83.123z"/>
</g>
</svg>
